{
  "Nodes": [
    {
      "Annotation": "all_tundra_nodes",
      "Action": "",
      "Inputs": [],
      "Outputs": [],
      "TargetDirectories": [],
      "PassIndex": 0,
      "Deps": [
        1
      ],
      "OverwriteOutputs": true,
      "FrontendResponseFiles": [],
      "AllowUnexpectedOutput": true,
      "AllowedOutputSubstrings": [],
      "DebugActionIndex": 0
    },
    {
      "Annotation": "Il2Cpp C:/Users/user/Desktop/cssl_submit_00_07.30.2020/Slots2/Library/Il2cppBuildCache/Android/armeabi-v7a/Native/armeabi-v7a/libil2cpp.so",
      "Action": "\"C:\\Program Files\\Unity\\Hub\\Editor\\2020.3.9f1\\Editor\\Data\\il2cpp/build/deploy/netcoreapp3.1/il2cpp.exe\" --convert-to-cpp --emit-null-checks --enable-array-bounds-check --dotnetprofile=\"unityaot\" --compile-cpp --libil2cpp-static --platform=\"Android\" --architecture=\"ARMv7\" --configuration=\"Release\" --outputpath=\"C:\\Users\\user\\Desktop\\cssl_submit_00_07.30.2020\\Slots2\\Library\\Il2cppBuildCache\\Android\\armeabi-v7a\\Native\\armeabi-v7a\\libil2cpp.so\" --cachedirectory=\"C:\\Users\\user\\Desktop\\cssl_submit_00_07.30.2020\\Slots2\\Assets\\..\\Library\\il2cpp_android_armeabi-v7a/il2cpp_cache\" --additional-include-directories=\"C:/Program Files/Unity/Hub/Editor/2020.3.9f1/Editor/Data/PlaybackEngines/AndroidPlayer/Tools\\bdwgc/include\" --additional-include-directories=\"C:/Program Files/Unity/Hub/Editor/2020.3.9f1/Editor/Data/PlaybackEngines/AndroidPlayer/Tools\\libil2cpp/include\" --baselib-directory=\"C:/Program Files/Unity/Hub/Editor/2020.3.9f1/Editor/Data/PlaybackEngines/AndroidPlayer\\Variations\\il2cpp\\Release\\StaticLibs\\armeabi-v7a\" --avoid-dynamic-library-copy --tool-chain-path=\"C:/Program Files/Unity/Hub/Editor/2020.3.9f1/Editor/Data/PlaybackEngines/AndroidPlayer/NDK\" --profiler-report --map-file-parser=\"C:/Program Files/Unity/Hub/Editor/2020.3.9f1/Editor/Data/Tools/MapFileParser/MapFileParser.exe\" --directory=C:/Users/user/Desktop/cssl_submit_00_07.30.2020/Slots2/Temp/StagingArea/assets/bin/Data/Managed --generatedcppdir=C:/Users/user/Desktop/cssl_submit_00_07.30.2020/Slots2/Library/Il2cppBuildCache/Android/armeabi-v7a/il2cppOutput",
      "Inputs": [
        "C:/Users/user/Desktop/cssl_submit_00_07.30.2020/Slots2/Temp/StagingArea/assets/bin/Data/Managed",
        "C:/Users/user/Desktop/cssl_submit_00_07.30.2020/Slots2/Temp/StagingArea/assets/bin/Data/Managed/Assembly-CSharp-firstpass.dll",
        "C:/Users/user/Desktop/cssl_submit_00_07.30.2020/Slots2/Temp/StagingArea/assets/bin/Data/Managed/Assembly-CSharp.dll",
        "C:/Users/user/Desktop/cssl_submit_00_07.30.2020/Slots2/Temp/StagingArea/assets/bin/Data/Managed/GoogleMobileAds.dll",
        "C:/Users/user/Desktop/cssl_submit_00_07.30.2020/Slots2/Temp/StagingArea/assets/bin/Data/Managed/Mono.Security.dll",
        "C:/Users/user/Desktop/cssl_submit_00_07.30.2020/Slots2/Temp/StagingArea/assets/bin/Data/Managed/mscorlib.dll",
        "C:/Users/user/Desktop/cssl_submit_00_07.30.2020/Slots2/Temp/StagingArea/assets/bin/Data/Managed/Purchasing.Common.dll",
        "C:/Users/user/Desktop/cssl_submit_00_07.30.2020/Slots2/Temp/StagingArea/assets/bin/Data/Managed/System.Configuration.dll",
        "C:/Users/user/Desktop/cssl_submit_00_07.30.2020/Slots2/Temp/StagingArea/assets/bin/Data/Managed/System.Core.dll",
        "C:/Users/user/Desktop/cssl_submit_00_07.30.2020/Slots2/Temp/StagingArea/assets/bin/Data/Managed/System.dll",
        "C:/Users/user/Desktop/cssl_submit_00_07.30.2020/Slots2/Temp/StagingArea/assets/bin/Data/Managed/System.Xml.dll",
        "C:/Users/user/Desktop/cssl_submit_00_07.30.2020/Slots2/Temp/StagingArea/assets/bin/Data/Managed/Unity.TextMeshPro.dll",
        "C:/Users/user/Desktop/cssl_submit_00_07.30.2020/Slots2/Temp/StagingArea/assets/bin/Data/Managed/UnityEngine.AndroidJNIModule.dll",
        "C:/Users/user/Desktop/cssl_submit_00_07.30.2020/Slots2/Temp/StagingArea/assets/bin/Data/Managed/UnityEngine.AnimationModule.dll",
        "C:/Users/user/Desktop/cssl_submit_00_07.30.2020/Slots2/Temp/StagingArea/assets/bin/Data/Managed/UnityEngine.AudioModule.dll",
        "C:/Users/user/Desktop/cssl_submit_00_07.30.2020/Slots2/Temp/StagingArea/assets/bin/Data/Managed/UnityEngine.CoreModule.dll",
        "C:/Users/user/Desktop/cssl_submit_00_07.30.2020/Slots2/Temp/StagingArea/assets/bin/Data/Managed/UnityEngine.dll",
        "C:/Users/user/Desktop/cssl_submit_00_07.30.2020/Slots2/Temp/StagingArea/assets/bin/Data/Managed/UnityEngine.GridModule.dll",
        "C:/Users/user/Desktop/cssl_submit_00_07.30.2020/Slots2/Temp/StagingArea/assets/bin/Data/Managed/UnityEngine.ImageConversionModule.dll",
        "C:/Users/user/Desktop/cssl_submit_00_07.30.2020/Slots2/Temp/StagingArea/assets/bin/Data/Managed/UnityEngine.IMGUIModule.dll",
        "C:/Users/user/Desktop/cssl_submit_00_07.30.2020/Slots2/Temp/StagingArea/assets/bin/Data/Managed/UnityEngine.InputLegacyModule.dll",
        "C:/Users/user/Desktop/cssl_submit_00_07.30.2020/Slots2/Temp/StagingArea/assets/bin/Data/Managed/UnityEngine.JSONSerializeModule.dll",
        "C:/Users/user/Desktop/cssl_submit_00_07.30.2020/Slots2/Temp/StagingArea/assets/bin/Data/Managed/UnityEngine.ParticleSystemModule.dll",
        "C:/Users/user/Desktop/cssl_submit_00_07.30.2020/Slots2/Temp/StagingArea/assets/bin/Data/Managed/UnityEngine.Physics2DModule.dll",
        "C:/Users/user/Desktop/cssl_submit_00_07.30.2020/Slots2/Temp/StagingArea/assets/bin/Data/Managed/UnityEngine.PhysicsModule.dll",
        "C:/Users/user/Desktop/cssl_submit_00_07.30.2020/Slots2/Temp/StagingArea/assets/bin/Data/Managed/UnityEngine.Purchasing.AppleCore.dll",
        "C:/Users/user/Desktop/cssl_submit_00_07.30.2020/Slots2/Temp/StagingArea/assets/bin/Data/Managed/UnityEngine.Purchasing.AppleMacosStub.dll",
        "C:/Users/user/Desktop/cssl_submit_00_07.30.2020/Slots2/Temp/StagingArea/assets/bin/Data/Managed/UnityEngine.Purchasing.AppleStub.dll",
        "C:/Users/user/Desktop/cssl_submit_00_07.30.2020/Slots2/Temp/StagingArea/assets/bin/Data/Managed/UnityEngine.Purchasing.dll",
        "C:/Users/user/Desktop/cssl_submit_00_07.30.2020/Slots2/Temp/StagingArea/assets/bin/Data/Managed/UnityEngine.Purchasing.Security.dll",
        "C:/Users/user/Desktop/cssl_submit_00_07.30.2020/Slots2/Temp/StagingArea/assets/bin/Data/Managed/UnityEngine.Purchasing.SecurityCore.dll",
        "C:/Users/user/Desktop/cssl_submit_00_07.30.2020/Slots2/Temp/StagingArea/assets/bin/Data/Managed/UnityEngine.Purchasing.Stores.dll",
        "C:/Users/user/Desktop/cssl_submit_00_07.30.2020/Slots2/Temp/StagingArea/assets/bin/Data/Managed/UnityEngine.Purchasing.WinRTCore.dll",
        "C:/Users/user/Desktop/cssl_submit_00_07.30.2020/Slots2/Temp/StagingArea/assets/bin/Data/Managed/UnityEngine.Purchasing.WinRTStub.dll",
        "C:/Users/user/Desktop/cssl_submit_00_07.30.2020/Slots2/Temp/StagingArea/assets/bin/Data/Managed/UnityEngine.SharedInternalsModule.dll",
        "C:/Users/user/Desktop/cssl_submit_00_07.30.2020/Slots2/Temp/StagingArea/assets/bin/Data/Managed/UnityEngine.SpriteShapeModule.dll",
        "C:/Users/user/Desktop/cssl_submit_00_07.30.2020/Slots2/Temp/StagingArea/assets/bin/Data/Managed/UnityEngine.TextCoreModule.dll",
        "C:/Users/user/Desktop/cssl_submit_00_07.30.2020/Slots2/Temp/StagingArea/assets/bin/Data/Managed/UnityEngine.TextRenderingModule.dll",
        "C:/Users/user/Desktop/cssl_submit_00_07.30.2020/Slots2/Temp/StagingArea/assets/bin/Data/Managed/UnityEngine.TilemapModule.dll",
        "C:/Users/user/Desktop/cssl_submit_00_07.30.2020/Slots2/Temp/StagingArea/assets/bin/Data/Managed/UnityEngine.UI.dll",
        "C:/Users/user/Desktop/cssl_submit_00_07.30.2020/Slots2/Temp/StagingArea/assets/bin/Data/Managed/UnityEngine.UIModule.dll",
        "C:/Users/user/Desktop/cssl_submit_00_07.30.2020/Slots2/Temp/StagingArea/assets/bin/Data/Managed/UnityEngine.UnityAnalyticsModule.dll",
        "C:/Users/user/Desktop/cssl_submit_00_07.30.2020/Slots2/Temp/StagingArea/assets/bin/Data/Managed/UnityEngine.UnityWebRequestModule.dll"
      ],
      "Outputs": [
        "C:/Users/user/Desktop/cssl_submit_00_07.30.2020/Slots2/Library/Il2cppBuildCache/Android/armeabi-v7a/Native/armeabi-v7a/libil2cpp.so"
      ],
      "TargetDirectories": [
        "C:/Users/user/Desktop/cssl_submit_00_07.30.2020/Slots2/Library/Il2cppBuildCache/Android/armeabi-v7a/il2cppOutput"
      ],
      "PassIndex": 0,
      "Deps": [],
      "OverwriteOutputs": false,
      "FrontendResponseFiles": [],
      "AllowUnexpectedOutput": true,
      "AllowedOutputSubstrings": [],
      "DebugActionIndex": 1
    }
  ],
  "FileSignatures": [
    {
      "File": "../../../../Temp/StagingArea/assets/bin/Data/Managed"
    },
    {
      "File": "artifacts/buildprogram/tundra_buildprogram.dag.json"
    },
    {
      "File": "il2cpp_settings.json"
    },
    {
      "File": "unitylinker_settings.json"
    }
  ],
  "GlobSignatures": [
    {
      "Path": "../../../../Temp/StagingArea/assets/bin/Data/Managed"
    }
  ],
  "ContentDigestExtensions": [
    ".rsp",
    ".dll",
    ".exe",
    ".txt",
    ".c",
    ".cpp",
    ".h",
    ".cs",
    ".hpp"
  ],
  "StructuredLogFileName": "artifacts/tundra.log.json",
  "StateFileName": "artifacts/TundraBuildState.state",
  "StateFileNameTmp": "artifacts/TundraBuildState.state.tmp",
  "ScanCacheFileName": "artifacts/tundra.scancache",
  "ScanCacheFileNameTmp": "artifacts/tundra.scancache.tmp",
  "DigestCacheFileName": "artifacts/tundra.digestcache",
  "DigestCacheFileNameTmp": "artifacts/tundra.digestcache.tmp",
        "NamedNodes": {
          "all_tundra_nodes": 0
        }
,  "DefaultNodes": [
    0
  ],
  "SharedResources": [],
  "Scanners": [],
  "Identifier": "artifacts/tundra.dag.json",
  "BuildTitle": "Bee",
  "RelativePathToRoot": ".."
}